Guia definitivo do R para estudantes de sociais
…
Em seguida vamos filtrar os dados e selecionar as variaveis que iremos trabalhar. Vamos selecionar as regiões da américa latina e África subsahariana e as variaveis relacionadas à região, ao ano e CPI que é índice de percepção de corrupção. O código abaixo faz isso:

> filtrado <- dados %>% 
+   filter(Regiao == "Latin America & Caribbean" | Regiao == "Sub-Saharan Africa") %>% 
+   select(Regiao, Ano, CPI)

Onde tiver %>% leia “então”. Deste modo o chunk acima está fazendo o seguite: pegando o objeto dados, então filtrando a coluna Regiao para valores que sejam iguais à “Latin America & Caribbean” OU iguais à “Sub-Saharan Africa”, então selecionando as colunas com o nome de Regiao, Ano e CPI e salvando o resultado em um objeto chamado filtrado. Veja que aqui utilizamos o operador lógico OU para fazer o filtro, filter(Regiao == "Latin America & Caribbean" | Regiao == "Sub-Saharan Africa")!

Antes de prosseguirmos, vamos verificar o data frame filtrado:

> filtrado
# # A tibble: 496 x 3
#                       Regiao   Ano      CPI
#                        <chr> <int>    <dbl>
#  1        Sub-Saharan Africa  2006 22.00000
#  2        Sub-Saharan Africa  2008 19.00000
#  3        Sub-Saharan Africa  2010 19.00000
#  4        Sub-Saharan Africa  2011 20.05035
#  5        Sub-Saharan Africa  2012 22.00000
#  6        Sub-Saharan Africa  2013 23.00000
#  7        Sub-Saharan Africa  2014 19.00000
#  8        Sub-Saharan Africa  2015 15.00000
#  9 Latin America & Caribbean  2006 29.00000
# 10 Latin America & Caribbean  2008 29.00000
# # ... with 486 more rows
…
